time;1BTC;1ETH;1SOL;1BNB
1660298796.658838;24098.321;1899.789;43.735;327.279
1660298905.759006;24098.321;1899.789;43.736;327.279
1660299909.212299;23938.662;1890.06;43.268;326.048
1660301179.918893;23896.461;1888.195;42.977;324.439
1660302813.700602;23791.949;1877.063;42.529;319.669
1660327816.772533;24013.185;1898.623;43.081;322.437
1660334526.139379;24174.693;1923.487;44.484;325.24
1660334563.42975;24174.693;1923.487;44.484;325.24
1660334590.526014;24172.693;1922.487;44.284;322.24
1660334595.526015;24174.693;1923.487;44.484;325.24



1660338253.344657;24170.888;1926.597;44.758;325.317
